{"properties": [
  {
    "name": "mysql.service.host",
    "type": "java.lang.String",
    "description": "A description for 'mysql.service.host'"
  },
  {
    "name": "mysql.service.port",
    "type": "java.lang.String",
    "description": "A description for 'mysql.service.port'"
  },
  {
    "name": "mysql.service.database",
    "type": "java.lang.String",
    "description": "A description for 'mysql.service.database'"
  },
  {
    "name": "mysql.service.username",
    "type": "java.lang.String",
    "description": "A description for 'mysql.service.username'"
  },
  {
    "name": "mysql.service.password",
    "type": "java.lang.String",
    "description": "A description for 'mysql.service.password'"
  }
]}